C:\Users\Tanver\Desktop\digitalmedicalpassport\DigitalMedicalPassport.API
--output-path=obj\Any CPU\Debug\netcoreapp2.0\
--application-name=DigitalMedicalPassport.API
--content-root=C:\Users\Tanver\Desktop\digitalmedicalpassport\DigitalMedicalPassport.API
--file=C:\Users\Tanver\Desktop\digitalmedicalpassport\DigitalMedicalPassport.API\Views\Shared\Error.cshtml
--file=C:\Users\Tanver\Desktop\digitalmedicalpassport\DigitalMedicalPassport.API\Views\Shared\_Layout.cshtml
--file=C:\Users\Tanver\Desktop\digitalmedicalpassport\DigitalMedicalPassport.API\Views\_ViewImports.cshtml
--file=C:\Users\Tanver\Desktop\digitalmedicalpassport\DigitalMedicalPassport.API\Views\_ViewStart.cshtml
